{
  "database": {
    "rules": "database.rules.json"
  },
  "hosting": {
    "public": ".staging",
    "ignore": ["firebase.json", "**/.*", "**/node_modules/**"],
    "rewrites": [
      {
        "source": "/library/one-trillion-digits-of-pi/**",
        "destination": "/library/one-trillion-digits-of-pi/index.html"
      }
    ]
  }
}
