{
  "rules": {
    "volumeViews": {
      ".read": false,
      ".write": false,
      "$volume_number": {
        ".validate": "newData.isNumber() && newData.val() >= 1 && newData.val() <= 1000000"
      }
    }
  }
}
